{
  "restApiRoot": "/api",
  "host": "0.0.0.0",
  "port": 3000,
  "uri": "http://localhost:3000",
  "defaultLanguage": "en",
  "api_key": "$AUTH_SERVICE_API_KEY",
  "session":{
    "secret": "$AUTH_SERVICE_SESSION_SECRET",
    "saveUninitialized": false,
    "resave": false,
    "unset": "destroy"
  },
  "remoting": {
    "context": false,
    "rest": {
      "handleErrors": false,
      "normalizeHttpPath": false,
      "xml": false
    },
    "json": {
      "strict": false,
      "limit": "100kb"
    },
    "urlencoded": {
      "extended": true,
      "limit": "100kb"
    },
    "cors": false
  },
  "email": {
		"host": "https://domain.com",
		"port": "",
		"from": "Domain <info@domain.com>",
		"to": "info@domain.com"
	},
  "cookieSecret": "$AUTH_SERVICE_COOKIE_SECRET",
  "sns":{
    "region": "us-east-1",
    "accessKey": "$AWS_SNS_API_KEY",
    "secretKey": "$AWS_SNS_API_SECRET"
  },
  "auth-providers": [{
		"provider": "local",
		"module": "passport-local",
		"strategy": "LocalStrategy",
		"callbackURL": "https://auth.devsertec.com/auth/local/callback",
		"authPath": "/auth/local",
		"callbackPath": "/auth/local/callback",
		"successRedirect": "/oauth/grant/implicit"
	}, {
		"provider": "google",
		"module": "passport-google-oauth",
		"strategy": "OAuth2Strategy",
		"clientID": "$AUTH_SERVICE_PROVIDER_GOOGLE_API_KEY",
		"clientSecret": "$AUTH_SERVICE_PROVIDER_GOOGLE_API_SECRET",
		"callbackURL": "https://auth.devsertec.com/auth/google/callback",
		"authPath": "/auth/google",
		"callbackPath": "/auth/google/callback",
		"successRedirect": "/oauth/grant/implicit",
		"scope": ["email"]
	}, {
		"provider": "facebook",
		"module": "passport-facebook",
		"clientID": "$AUTH_SERVICE_PROVIDER_FB_API_KEY",
		"clientSecret": "$AUTH_SERVICE_PROVIDER_FB_API_SECRET",
		"callbackURL": "https://auth.devsertec.com/auth/facebook/callback",
		"authPath": "/auth/facebook",
		"callbackPath": "/auth/facebook/callback",
		"successRedirect": "/oauth/grant/implicit",
		"scope": ["email"],
		"profileURL": "https://graph.facebook.com/v2.12/me?fields=first_name,gender,picture,last_name,link,locale,name,timezone,verified,email,updated_time"
	}]
}
